(kicad_symbol_lib (version 20211014) (generator kicad_symbol_editor)
  (symbol "1g00" (pin_names hide) (in_bom yes) (on_board yes)
    (property "Reference" "U" (id 0) (at 0 5.08 0)
      (effects (font (size 1.27 1.27)))
    )
    (property "Value" "1g00" (id 1) (at 0 -5.08 0)
      (effects (font (size 1.27 1.27)))
    )
    (property "Footprint" "Package_TO_SOT_SMD:SOT-23-5" (id 2) (at 0 -1.27 0)
      (effects (font (size 1.27 1.27)) hide)
    )
    (property "Datasheet" "" (id 3) (at 0 0 0)
      (effects (font (size 1.27 1.27)) hide)
    )
    (property "ki_locked" "" (id 4) (at 0 0 0)
      (effects (font (size 1.27 1.27)))
    )
    (property "ki_keywords" "Gate NAND push-pull single logic" (id 5) (at 0 0 0)
      (effects (font (size 1.27 1.27)) hide)
    )
    (property "ki_description" "Single 2-input NAND, push-pull output" (id 6) (at 0 0 0)
      (effects (font (size 1.27 1.27)) hide)
    )
    (symbol "1g00_1_1"
      (rectangle (start -2.54 3.81) (end 2.54 -3.81)
        (stroke (width 0.254) (type default) (color 0 0 0 0))
        (fill (type none))
      )
      (text "&" (at 0 0 0)
        (effects (font (size 1.27 1.27)))
      )
      (pin input line (at -6.35 2.54 0) (length 3.81)
        (name "A" (effects (font (size 1.27 1.27))))
        (number "1" (effects (font (size 1.27 1.27))))
      )
      (pin input line (at -6.35 -2.54 0) (length 3.81)
        (name "B" (effects (font (size 1.27 1.27))))
        (number "2" (effects (font (size 1.27 1.27))))
      )
      (pin output inverted (at 6.35 0 180) (length 3.81)
        (name "Y" (effects (font (size 1.27 1.27))))
        (number "4" (effects (font (size 1.27 1.27))))
      )
    )
    (symbol "1g00_2_1"
      (rectangle (start -3.175 1.905) (end 3.175 -1.905)
        (stroke (width 0.254) (type default) (color 0 0 0 0))
        (fill (type none))
      )
      (pin power_in line (at 0 -6.35 90) (length 4.445)
        (name "B" (effects (font (size 1.27 1.27))))
        (number "3" (effects (font (size 1.27 1.27))))
      )
      (pin power_in line (at 0 6.35 270) (length 4.445)
        (name "A" (effects (font (size 1.27 1.27))))
        (number "5" (effects (font (size 1.27 1.27))))
      )
    )
  )
  (symbol "2g00" (pin_names hide) (in_bom yes) (on_board yes)
    (property "Reference" "U" (id 0) (at 0 5.08 0)
      (effects (font (size 1.27 1.27)))
    )
    (property "Value" "2g00" (id 1) (at 0 -5.08 0)
      (effects (font (size 1.27 1.27)))
    )
    (property "Footprint" "Package_SO:VSSOP-8_2.3x2mm_P0.5mm" (id 2) (at 0 0 0)
      (effects (font (size 1.27 1.27)) hide)
    )
    (property "Datasheet" "" (id 3) (at 0 0 0)
      (effects (font (size 1.27 1.27)) hide)
    )
    (property "ki_locked" "" (id 4) (at 0 0 0)
      (effects (font (size 1.27 1.27)))
    )
    (property "ki_keywords" "Gate, NAND, push-pull, dual, logic" (id 5) (at 0 0 0)
      (effects (font (size 1.27 1.27)) hide)
    )
    (property "ki_description" "Dual 2-input NAND, push-pull output" (id 6) (at 0 0 0)
      (effects (font (size 1.27 1.27)) hide)
    )
    (symbol "2g00_0_1"
      (rectangle (start -2.54 3.81) (end 2.54 -3.81)
        (stroke (width 0.254) (type default) (color 0 0 0 0))
        (fill (type none))
      )
    )
    (symbol "2g00_1_1"
      (text "&" (at 0 0 0)
        (effects (font (size 1.27 1.27)))
      )
      (pin input line (at -6.35 2.54 0) (length 3.81)
        (name "A" (effects (font (size 1.27 1.27))))
        (number "1" (effects (font (size 1.27 1.27))))
      )
      (pin input line (at -6.35 -2.54 0) (length 3.81)
        (name "B" (effects (font (size 1.27 1.27))))
        (number "2" (effects (font (size 1.27 1.27))))
      )
      (pin output inverted (at 6.35 0 180) (length 3.81)
        (name "Y" (effects (font (size 1.27 1.27))))
        (number "7" (effects (font (size 1.27 1.27))))
      )
    )
    (symbol "2g00_2_1"
      (text "&" (at 0 0 0)
        (effects (font (size 1.27 1.27)))
      )
      (pin output inverted (at 6.35 0 180) (length 3.81)
        (name "Y" (effects (font (size 1.27 1.27))))
        (number "3" (effects (font (size 1.27 1.27))))
      )
      (pin input line (at -6.35 2.54 0) (length 3.81)
        (name "A" (effects (font (size 1.27 1.27))))
        (number "5" (effects (font (size 1.27 1.27))))
      )
      (pin input line (at -6.35 -2.54 0) (length 3.81)
        (name "B" (effects (font (size 1.27 1.27))))
        (number "6" (effects (font (size 1.27 1.27))))
      )
    )
    (symbol "2g00_3_1"
      (pin power_in line (at 0 -7.62 90) (length 3.81)
        (name "GND" (effects (font (size 1.27 1.27))))
        (number "4" (effects (font (size 1.27 1.27))))
      )
      (pin power_in line (at 0 7.62 270) (length 3.81)
        (name "VCC" (effects (font (size 1.27 1.27))))
        (number "8" (effects (font (size 1.27 1.27))))
      )
    )
  )
  (symbol "3V3" (power) (pin_numbers hide) (pin_names (offset 0) hide) (in_bom no) (on_board yes)
    (property "Reference" "#PWR" (id 0) (at 0 -3.81 0)
      (effects (font (size 1.27 1.27)) hide)
    )
    (property "Value" "3V3" (id 1) (at 0 5.08 0)
      (effects (font (size 1.27 1.27)))
    )
    (property "Footprint" "" (id 2) (at 0 0 0)
      (effects (font (size 1.27 1.27)) hide)
    )
    (property "Datasheet" "" (id 3) (at 0 0 0)
      (effects (font (size 1.27 1.27)) hide)
    )
    (property "ki_keywords" "power-flag" (id 4) (at 0 0 0)
      (effects (font (size 1.27 1.27)) hide)
    )
    (property "ki_description" "Power symbol creates a global label with name \"3V3\"" (id 5) (at 0 0 0)
      (effects (font (size 1.27 1.27)) hide)
    )
    (symbol "3V3_0_1"
      (polyline
        (pts
          (xy 0 0)
          (xy 0 2.032)
        )
        (stroke (width 0) (type default) (color 0 0 0 0))
        (fill (type none))
      )
      (polyline
        (pts
          (xy 0 3.302)
          (xy 0.508 2.032)
          (xy -0.508 2.032)
          (xy 0 3.302)
        )
        (stroke (width 0) (type default) (color 0 0 0 0))
        (fill (type none))
      )
    )
    (symbol "3V3_1_1"
      (pin power_in line (at 0 0 90) (length 0) hide
        (name "VCC" (effects (font (size 1.27 1.27))))
        (number "1" (effects (font (size 1.27 1.27))))
      )
    )
  )
  (symbol "74HC02" (pin_names hide) (in_bom yes) (on_board yes)
    (property "Reference" "U" (id 0) (at 0 5.08 0)
      (effects (font (size 1.27 1.27)))
    )
    (property "Value" "74HC02" (id 1) (at 0 -5.08 0)
      (effects (font (size 1.27 1.27)))
    )
    (property "Footprint" "" (id 2) (at 0 0 0)
      (effects (font (size 1.27 1.27)) hide)
    )
    (property "Datasheet" "" (id 3) (at 0 0 0)
      (effects (font (size 1.27 1.27)) hide)
    )
    (property "ki_locked" "" (id 4) (at 0 0 0)
      (effects (font (size 1.27 1.27)))
    )
    (property "ki_keywords" "NOR gate " (id 5) (at 0 0 0)
      (effects (font (size 1.27 1.27)) hide)
    )
    (property "ki_description" "Quad 2-input CMOS NOR gate with push-pull output" (id 6) (at 0 0 0)
      (effects (font (size 1.27 1.27)) hide)
    )
    (symbol "74HC02_1_1"
      (rectangle (start -2.54 3.81) (end 2.54 -3.81)
        (stroke (width 0.254) (type default) (color 0 0 0 0))
        (fill (type none))
      )
      (text "OR" (at 0 0 0)
        (effects (font (size 1.27 1.27)))
      )
      (pin output inverted (at 7.62 0 180) (length 5.08)
        (name "Y" (effects (font (size 1.27 1.27))))
        (number "1" (effects (font (size 1.27 1.27))))
      )
      (pin input line (at -7.62 2.54 0) (length 5.08)
        (name "A" (effects (font (size 1.27 1.27))))
        (number "2" (effects (font (size 1.27 1.27))))
      )
      (pin input line (at -7.62 -2.54 0) (length 5.08)
        (name "B" (effects (font (size 1.27 1.27))))
        (number "3" (effects (font (size 1.27 1.27))))
      )
    )
    (symbol "74HC02_2_1"
      (rectangle (start -2.54 3.81) (end 2.54 -3.81)
        (stroke (width 0.254) (type default) (color 0 0 0 0))
        (fill (type none))
      )
      (text "OR" (at 0 0 0)
        (effects (font (size 1.27 1.27)))
      )
      (pin output inverted (at 7.62 0 180) (length 5.08)
        (name "Y" (effects (font (size 1.27 1.27))))
        (number "4" (effects (font (size 1.27 1.27))))
      )
      (pin input line (at -7.62 2.54 0) (length 5.08)
        (name "A" (effects (font (size 1.27 1.27))))
        (number "5" (effects (font (size 1.27 1.27))))
      )
      (pin input line (at -7.62 -2.54 0) (length 5.08)
        (name "B" (effects (font (size 1.27 1.27))))
        (number "6" (effects (font (size 1.27 1.27))))
      )
    )
    (symbol "74HC02_3_1"
      (rectangle (start -2.54 3.81) (end 2.54 -3.81)
        (stroke (width 0.254) (type default) (color 0 0 0 0))
        (fill (type none))
      )
      (text "OR" (at 0 0 0)
        (effects (font (size 1.27 1.27)))
      )
      (pin output inverted (at 7.62 0 180) (length 5.08)
        (name "Y" (effects (font (size 1.27 1.27))))
        (number "10" (effects (font (size 1.27 1.27))))
      )
      (pin input line (at -7.62 2.54 0) (length 5.08)
        (name "A" (effects (font (size 1.27 1.27))))
        (number "8" (effects (font (size 1.27 1.27))))
      )
      (pin input line (at -7.62 -2.54 0) (length 5.08)
        (name "B" (effects (font (size 1.27 1.27))))
        (number "9" (effects (font (size 1.27 1.27))))
      )
    )
    (symbol "74HC02_4_1"
      (rectangle (start -2.54 3.81) (end 2.54 -3.81)
        (stroke (width 0.254) (type default) (color 0 0 0 0))
        (fill (type none))
      )
      (text "OR" (at 0 0 0)
        (effects (font (size 1.27 1.27)))
      )
      (pin input line (at -7.62 2.54 0) (length 5.08)
        (name "A" (effects (font (size 1.27 1.27))))
        (number "11" (effects (font (size 1.27 1.27))))
      )
      (pin input line (at -7.62 -2.54 0) (length 5.08)
        (name "B" (effects (font (size 1.27 1.27))))
        (number "12" (effects (font (size 1.27 1.27))))
      )
      (pin output inverted (at 7.62 0 180) (length 5.08)
        (name "Y" (effects (font (size 1.27 1.27))))
        (number "13" (effects (font (size 1.27 1.27))))
      )
    )
    (symbol "74HC02_5_1"
      (rectangle (start -3.175 1.905) (end 3.175 -1.905)
        (stroke (width 0.254) (type default) (color 0 0 0 0))
        (fill (type none))
      )
      (pin power_in line (at 0 6.985 270) (length 5.08)
        (name "VCC" (effects (font (size 1.27 1.27))))
        (number "14" (effects (font (size 1.27 1.27))))
      )
      (pin power_in line (at 0 -6.985 90) (length 5.08)
        (name "GND" (effects (font (size 1.27 1.27))))
        (number "7" (effects (font (size 1.27 1.27))))
      )
    )
  )
  (symbol "74HC03" (pin_names hide) (in_bom yes) (on_board yes)
    (property "Reference" "U" (id 0) (at 0 5.08 0)
      (effects (font (size 1.27 1.27)))
    )
    (property "Value" "74HC03" (id 1) (at 0 -5.08 0)
      (effects (font (size 1.27 1.27)))
    )
    (property "Footprint" "" (id 2) (at 0 0 0)
      (effects (font (size 1.27 1.27)) hide)
    )
    (property "Datasheet" "" (id 3) (at 0 0 0)
      (effects (font (size 1.27 1.27)) hide)
    )
    (property "ki_locked" "" (id 4) (at 0 0 0)
      (effects (font (size 1.27 1.27)))
    )
    (property "ki_keywords" "NAND gate " (id 5) (at 0 0 0)
      (effects (font (size 1.27 1.27)) hide)
    )
    (property "ki_description" "Quad 2-input CMOS NAND gate with open-drain output" (id 6) (at 0 0 0)
      (effects (font (size 1.27 1.27)) hide)
    )
    (symbol "74HC03_1_1"
      (rectangle (start -2.54 3.81) (end 2.54 -3.81)
        (stroke (width 0.254) (type default) (color 0 0 0 0))
        (fill (type none))
      )
      (text "&" (at 0 0 0)
        (effects (font (size 1.27 1.27)))
      )
      (pin input line (at -7.62 2.54 0) (length 5.08)
        (name "A" (effects (font (size 1.27 1.27))))
        (number "1" (effects (font (size 1.27 1.27))))
      )
      (pin input line (at -7.62 -2.54 0) (length 5.08)
        (name "B" (effects (font (size 1.27 1.27))))
        (number "2" (effects (font (size 1.27 1.27))))
      )
      (pin output inverted (at 7.62 0 180) (length 5.08)
        (name "Y" (effects (font (size 1.27 1.27))))
        (number "3" (effects (font (size 1.27 1.27))))
      )
    )
    (symbol "74HC03_2_1"
      (rectangle (start -2.54 3.81) (end 2.54 -3.81)
        (stroke (width 0.254) (type default) (color 0 0 0 0))
        (fill (type none))
      )
      (text "&" (at 0 0 0)
        (effects (font (size 1.27 1.27)))
      )
      (pin input line (at -7.62 2.54 0) (length 5.08)
        (name "A" (effects (font (size 1.27 1.27))))
        (number "4" (effects (font (size 1.27 1.27))))
      )
      (pin input line (at -7.62 -2.54 0) (length 5.08)
        (name "B" (effects (font (size 1.27 1.27))))
        (number "5" (effects (font (size 1.27 1.27))))
      )
      (pin output inverted (at 7.62 0 180) (length 5.08)
        (name "Y" (effects (font (size 1.27 1.27))))
        (number "6" (effects (font (size 1.27 1.27))))
      )
    )
    (symbol "74HC03_3_1"
      (rectangle (start -2.54 3.81) (end 2.54 -3.81)
        (stroke (width 0.254) (type default) (color 0 0 0 0))
        (fill (type none))
      )
      (text "&" (at 0 0 0)
        (effects (font (size 1.27 1.27)))
      )
      (pin input line (at -7.62 2.54 0) (length 5.08)
        (name "A" (effects (font (size 1.27 1.27))))
        (number "10" (effects (font (size 1.27 1.27))))
      )
      (pin output inverted (at 7.62 0 180) (length 5.08)
        (name "Y" (effects (font (size 1.27 1.27))))
        (number "8" (effects (font (size 1.27 1.27))))
      )
      (pin input line (at -7.62 -2.54 0) (length 5.08)
        (name "B" (effects (font (size 1.27 1.27))))
        (number "9" (effects (font (size 1.27 1.27))))
      )
    )
    (symbol "74HC03_4_1"
      (rectangle (start -2.54 3.81) (end 2.54 -3.81)
        (stroke (width 0.254) (type default) (color 0 0 0 0))
        (fill (type none))
      )
      (text "&" (at 0 0 0)
        (effects (font (size 1.27 1.27)))
      )
      (pin output inverted (at 7.62 0 180) (length 5.08)
        (name "Y" (effects (font (size 1.27 1.27))))
        (number "11" (effects (font (size 1.27 1.27))))
      )
      (pin input line (at -7.62 -2.54 0) (length 5.08)
        (name "B" (effects (font (size 1.27 1.27))))
        (number "12" (effects (font (size 1.27 1.27))))
      )
      (pin input line (at -7.62 2.54 0) (length 5.08)
        (name "A" (effects (font (size 1.27 1.27))))
        (number "13" (effects (font (size 1.27 1.27))))
      )
    )
    (symbol "74HC03_5_1"
      (rectangle (start -3.175 1.905) (end 3.175 -1.905)
        (stroke (width 0.254) (type default) (color 0 0 0 0))
        (fill (type none))
      )
      (pin power_in line (at 0 6.35 270) (length 4.445)
        (name "VCC" (effects (font (size 1.27 1.27))))
        (number "14" (effects (font (size 1.27 1.27))))
      )
      (pin power_in line (at 0 -6.35 90) (length 4.445)
        (name "GND" (effects (font (size 1.27 1.27))))
        (number "7" (effects (font (size 1.27 1.27))))
      )
    )
  )
  (symbol "74HC32" (pin_names hide) (in_bom yes) (on_board yes)
    (property "Reference" "U" (id 0) (at 0 5.08 0)
      (effects (font (size 1.27 1.27)))
    )
    (property "Value" "74HC32" (id 1) (at 0 -5.08 0)
      (effects (font (size 1.27 1.27)))
    )
    (property "Footprint" "" (id 2) (at 0 0 0)
      (effects (font (size 1.27 1.27)) hide)
    )
    (property "Datasheet" "" (id 3) (at 0 0 0)
      (effects (font (size 1.27 1.27)) hide)
    )
    (property "ki_locked" "" (id 4) (at 0 0 0)
      (effects (font (size 1.27 1.27)))
    )
    (property "ki_keywords" "OR gate push-pull" (id 5) (at 0 0 0)
      (effects (font (size 1.27 1.27)) hide)
    )
    (property "ki_description" "Quad 2-input CMOS OR gate with push-pull output" (id 6) (at 0 0 0)
      (effects (font (size 1.27 1.27)) hide)
    )
    (symbol "74HC32_1_1"
      (rectangle (start -2.54 3.81) (end 2.54 -3.81)
        (stroke (width 0.254) (type default) (color 0 0 0 0))
        (fill (type none))
      )
      (text "OR" (at 0 0 0)
        (effects (font (size 1.27 1.27)))
      )
      (pin input line (at -7.62 2.54 0) (length 5.08)
        (name "A" (effects (font (size 1.27 1.27))))
        (number "1" (effects (font (size 1.27 1.27))))
      )
      (pin input line (at -7.62 -2.54 0) (length 5.08)
        (name "B" (effects (font (size 1.27 1.27))))
        (number "2" (effects (font (size 1.27 1.27))))
      )
      (pin output line (at 7.62 0 180) (length 5.08)
        (name "Y" (effects (font (size 1.27 1.27))))
        (number "3" (effects (font (size 1.27 1.27))))
      )
    )
    (symbol "74HC32_2_1"
      (rectangle (start -2.54 3.81) (end 2.54 -3.81)
        (stroke (width 0.254) (type default) (color 0 0 0 0))
        (fill (type none))
      )
      (text "OR" (at 0 0 0)
        (effects (font (size 1.27 1.27)))
      )
      (pin input line (at -7.62 2.54 0) (length 5.08)
        (name "A" (effects (font (size 1.27 1.27))))
        (number "4" (effects (font (size 1.27 1.27))))
      )
      (pin input line (at -7.62 -2.54 0) (length 5.08)
        (name "B" (effects (font (size 1.27 1.27))))
        (number "5" (effects (font (size 1.27 1.27))))
      )
      (pin output line (at 7.62 0 180) (length 5.08)
        (name "Y" (effects (font (size 1.27 1.27))))
        (number "6" (effects (font (size 1.27 1.27))))
      )
    )
    (symbol "74HC32_3_1"
      (rectangle (start -2.54 3.81) (end 2.54 -3.81)
        (stroke (width 0.254) (type default) (color 0 0 0 0))
        (fill (type none))
      )
      (text "OR" (at 0 0 0)
        (effects (font (size 1.27 1.27)))
      )
      (pin input line (at -7.62 2.54 0) (length 5.08)
        (name "A" (effects (font (size 1.27 1.27))))
        (number "10" (effects (font (size 1.27 1.27))))
      )
      (pin output line (at 7.62 0 180) (length 5.08)
        (name "Y" (effects (font (size 1.27 1.27))))
        (number "8" (effects (font (size 1.27 1.27))))
      )
      (pin input line (at -7.62 -2.54 0) (length 5.08)
        (name "B" (effects (font (size 1.27 1.27))))
        (number "9" (effects (font (size 1.27 1.27))))
      )
    )
    (symbol "74HC32_4_1"
      (rectangle (start -2.54 3.81) (end 2.54 -3.81)
        (stroke (width 0.254) (type default) (color 0 0 0 0))
        (fill (type none))
      )
      (text "OR" (at 0 0 0)
        (effects (font (size 1.27 1.27)))
      )
      (pin output line (at 7.62 0 180) (length 5.08)
        (name "Y" (effects (font (size 1.27 1.27))))
        (number "11" (effects (font (size 1.27 1.27))))
      )
      (pin input line (at -7.62 -2.54 0) (length 5.08)
        (name "B" (effects (font (size 1.27 1.27))))
        (number "12" (effects (font (size 1.27 1.27))))
      )
      (pin input line (at -7.62 2.54 0) (length 5.08)
        (name "A" (effects (font (size 1.27 1.27))))
        (number "13" (effects (font (size 1.27 1.27))))
      )
    )
    (symbol "74HC32_5_1"
      (rectangle (start -3.175 1.905) (end 3.175 -1.905)
        (stroke (width 0.254) (type default) (color 0 0 0 0))
        (fill (type none))
      )
      (pin power_in line (at 0 6.985 270) (length 5.08)
        (name "VCC" (effects (font (size 1.27 1.27))))
        (number "14" (effects (font (size 1.27 1.27))))
      )
      (pin power_in line (at 0 -6.985 90) (length 5.08)
        (name "GND" (effects (font (size 1.27 1.27))))
        (number "7" (effects (font (size 1.27 1.27))))
      )
    )
  )
  (symbol "BC846BS" (pin_numbers hide) (pin_names (offset 0.002) hide) (in_bom yes) (on_board yes)
    (property "Reference" "Q" (id 0) (at 5.08 1.27 0)
      (effects (font (size 1.27 1.27)) (justify left))
    )
    (property "Value" "BC846BS" (id 1) (at 5.08 -1.27 0)
      (effects (font (size 1.27 1.27)) (justify left))
    )
    (property "Footprint" "Package_TO_SOT_SMD:SOT-363_SC-70-6" (id 2) (at 5.08 1.27 0)
      (effects (font (size 1.27 1.27)) hide)
    )
    (property "Datasheet" "https://assets.nexperia.com/documents/data-sheet/BC846BS.pdf" (id 3) (at 0 -1.27 0)
      (effects (font (size 1.27 1.27)) hide)
    )
    (property "ki_keywords" "NPN/NPN Transistor dual" (id 4) (at 0 0 0)
      (effects (font (size 1.27 1.27)) hide)
    )
    (property "ki_description" "100mA IC, 65V Vce, Dual NPN/NPN Transistors, SOT-363" (id 5) (at 0 0 0)
      (effects (font (size 1.27 1.27)) hide)
    )
    (property "ki_fp_filters" "SOT?363*" (id 6) (at 0 0 0)
      (effects (font (size 1.27 1.27)) hide)
    )
    (symbol "BC846BS_0_1"
      (polyline
        (pts
          (xy 0.635 0.635)
          (xy 2.54 2.54)
        )
        (stroke (width 0) (type default) (color 0 0 0 0))
        (fill (type none))
      )
      (polyline
        (pts
          (xy 0.635 -0.635)
          (xy 2.54 -2.54)
          (xy 2.54 -2.54)
        )
        (stroke (width 0) (type default) (color 0 0 0 0))
        (fill (type none))
      )
      (polyline
        (pts
          (xy 0.635 1.905)
          (xy 0.635 -1.905)
          (xy 0.635 -1.905)
        )
        (stroke (width 0.508) (type default) (color 0 0 0 0))
        (fill (type none))
      )
      (polyline
        (pts
          (xy 1.27 -1.778)
          (xy 1.778 -1.27)
          (xy 2.286 -2.286)
          (xy 1.27 -1.778)
          (xy 1.27 -1.778)
        )
        (stroke (width 0) (type default) (color 0 0 0 0))
        (fill (type outline))
      )
    )
    (symbol "BC846BS_1_1"
      (pin passive line (at 2.54 -2.54 90) (length 0)
        (name "E1" (effects (font (size 1.27 1.27))))
        (number "1" (effects (font (size 1.27 1.27))))
      )
      (pin input line (at -1.27 0 0) (length 1.905)
        (name "B1" (effects (font (size 1.27 1.27))))
        (number "2" (effects (font (size 1.27 1.27))))
      )
      (pin passive line (at 2.54 2.54 270) (length 0)
        (name "C1" (effects (font (size 1.27 1.27))))
        (number "6" (effects (font (size 1.27 1.27))))
      )
    )
    (symbol "BC846BS_2_1"
      (pin passive line (at 2.54 2.54 270) (length 0)
        (name "C2" (effects (font (size 1.27 1.27))))
        (number "3" (effects (font (size 1.27 1.27))))
      )
      (pin passive line (at 2.54 -2.54 90) (length 0)
        (name "E2" (effects (font (size 1.27 1.27))))
        (number "4" (effects (font (size 1.27 1.27))))
      )
      (pin input line (at -1.27 0 0) (length 1.905)
        (name "B2" (effects (font (size 1.27 1.27))))
        (number "5" (effects (font (size 1.27 1.27))))
      )
    )
  )
  (symbol "C" (pin_numbers hide) (pin_names (offset 0.254)) (in_bom yes) (on_board yes)
    (property "Reference" "C" (id 0) (at 0.635 2.54 0)
      (effects (font (size 1.27 1.27)) (justify left))
    )
    (property "Value" "C" (id 1) (at 0.635 -2.54 0)
      (effects (font (size 1.27 1.27)) (justify left))
    )
    (property "Footprint" "" (id 2) (at 0.9652 -3.81 0)
      (effects (font (size 1.27 1.27)) hide)
    )
    (property "Datasheet" "~" (id 3) (at 0 0 0)
      (effects (font (size 1.27 1.27)) hide)
    )
    (property "ki_keywords" "cap capacitor" (id 4) (at 0 0 0)
      (effects (font (size 1.27 1.27)) hide)
    )
    (property "ki_description" "Unpolarized capacitor" (id 5) (at 0 0 0)
      (effects (font (size 1.27 1.27)) hide)
    )
    (property "ki_fp_filters" "C_*" (id 6) (at 0 0 0)
      (effects (font (size 1.27 1.27)) hide)
    )
    (symbol "C_0_1"
      (polyline
        (pts
          (xy -1.27 -0.508)
          (xy 1.27 -0.508)
        )
        (stroke (width 0.508) (type default) (color 0 0 0 0))
        (fill (type none))
      )
      (polyline
        (pts
          (xy -1.27 0.508)
          (xy 1.27 0.508)
        )
        (stroke (width 0.508) (type default) (color 0 0 0 0))
        (fill (type none))
      )
    )
    (symbol "C_1_1"
      (pin passive line (at 0 2.54 270) (length 1.905)
        (name "~" (effects (font (size 1.27 1.27))))
        (number "1" (effects (font (size 1.27 1.27))))
      )
      (pin passive line (at 0 -2.54 90) (length 1.905)
        (name "~" (effects (font (size 1.27 1.27))))
        (number "2" (effects (font (size 1.27 1.27))))
      )
    )
  )
  (symbol "Diode" (pin_numbers hide) (pin_names (offset 0.254) hide) (in_bom yes) (on_board yes)
    (property "Reference" "D?" (id 0) (at 1.905 1.27 0)
      (effects (font (size 1.27 1.27)) (justify left))
    )
    (property "Value" "Diode" (id 1) (at 1.905 -1.27 0)
      (effects (font (size 1.27 1.27)) (justify left))
    )
    (property "Footprint" "" (id 2) (at 0.9652 -3.81 0)
      (effects (font (size 1.27 1.27)) hide)
    )
    (property "Datasheet" "~" (id 3) (at 2.54 -3.81 0)
      (effects (font (size 1.27 1.27)) hide)
    )
    (property "ki_keywords" "diode" (id 4) (at 0 0 0)
      (effects (font (size 1.27 1.27)) hide)
    )
    (property "ki_description" "Universal Diode" (id 5) (at 0 0 0)
      (effects (font (size 1.27 1.27)) hide)
    )
    (property "ki_fp_filters" "C_*" (id 6) (at 0 0 0)
      (effects (font (size 1.27 1.27)) hide)
    )
    (symbol "Diode_0_1"
      (polyline
        (pts
          (xy -1.143 -0.762)
          (xy 1.143 -0.762)
        )
        (stroke (width 0.127) (type default) (color 0 0 0 0))
        (fill (type none))
      )
      (polyline
        (pts
          (xy 0 -0.762)
          (xy -1.143 0.762)
          (xy 1.143 0.762)
          (xy 0 -0.762)
        )
        (stroke (width 0.127) (type default) (color 0 0 0 0))
        (fill (type none))
      )
    )
    (symbol "Diode_1_1"
      (pin passive line (at 0 2.54 270) (length 2.54)
        (name "A" (effects (font (size 1.27 1.27))))
        (number "1" (effects (font (size 1.27 1.27))))
      )
      (pin passive line (at 0 -2.54 90) (length 2.54)
        (name "K" (effects (font (size 1.27 1.27))))
        (number "2" (effects (font (size 1.27 1.27))))
      )
    )
  )
  (symbol "FT2232HL" (in_bom yes) (on_board yes)
    (property "Reference" "U" (id 0) (at -12.7 8.89 0)
      (effects (font (size 1.27 1.27)) (justify right))
    )
    (property "Value" "FT2232HL" (id 1) (at -12.7 6.35 0)
      (effects (font (size 1.27 1.27)) (justify right))
    )
    (property "Footprint" "Package_QFP:LQFP-64_10x10mm_P0.5mm" (id 2) (at 0 -15.24 0)
      (effects (font (size 1.27 1.27)) hide)
    )
    (property "Datasheet" "https://www.ftdichip.com/Support/Documents/DataSheets/ICs/DS_FT2232H.pdf" (id 3) (at 0 -11.43 0)
      (effects (font (size 1.27 1.27)) hide)
    )
    (property "ki_locked" "" (id 4) (at 0 0 0)
      (effects (font (size 1.27 1.27)))
    )
    (property "ki_keywords" "USB Double UART FIFO JTAG I2C" (id 5) (at 0 0 0)
      (effects (font (size 1.27 1.27)) hide)
    )
    (property "ki_description" "Hi Speed Double Channel USB UART/FIFO, LQFP-64" (id 6) (at 0 0 0)
      (effects (font (size 1.27 1.27)) hide)
    )
    (property "ki_fp_filters" "LQFP*10x10mm*P0.5mm*" (id 7) (at 0 0 0)
      (effects (font (size 1.27 1.27)) hide)
    )
    (symbol "FT2232HL_1_1"
      (rectangle (start -11.43 10.16) (end 11.43 -12.7)
        (stroke (width 0.254) (type default) (color 0 0 0 0))
        (fill (type background))
      )
      (pin bidirectional line (at 15.24 7.62 180) (length 3.81)
        (name "ADBUS0" (effects (font (size 1.27 1.27))))
        (number "16" (effects (font (size 1.27 1.27))))
      )
      (pin bidirectional line (at 15.24 5.08 180) (length 3.81)
        (name "ADBUS1" (effects (font (size 1.27 1.27))))
        (number "17" (effects (font (size 1.27 1.27))))
      )
      (pin bidirectional line (at 15.24 2.54 180) (length 3.81)
        (name "ADBUS2" (effects (font (size 1.27 1.27))))
        (number "18" (effects (font (size 1.27 1.27))))
      )
      (pin bidirectional line (at 15.24 0 180) (length 3.81)
        (name "ADBUS3" (effects (font (size 1.27 1.27))))
        (number "19" (effects (font (size 1.27 1.27))))
      )
      (pin bidirectional line (at 15.24 -2.54 180) (length 3.81)
        (name "ADBUS4" (effects (font (size 1.27 1.27))))
        (number "21" (effects (font (size 1.27 1.27))))
      )
      (pin bidirectional line (at 15.24 -5.08 180) (length 3.81)
        (name "ADBUS5" (effects (font (size 1.27 1.27))))
        (number "22" (effects (font (size 1.27 1.27))))
      )
      (pin bidirectional line (at 15.24 -7.62 180) (length 3.81)
        (name "ADBUS6" (effects (font (size 1.27 1.27))))
        (number "23" (effects (font (size 1.27 1.27))))
      )
      (pin bidirectional line (at 15.24 -10.16 180) (length 3.81)
        (name "ADBUS7" (effects (font (size 1.27 1.27))))
        (number "24" (effects (font (size 1.27 1.27))))
      )
    )
    (symbol "FT2232HL_2_1"
      (rectangle (start -11.43 10.16) (end 11.43 -12.7)
        (stroke (width 0.254) (type default) (color 0 0 0 0))
        (fill (type background))
      )
      (pin bidirectional line (at 15.24 7.62 180) (length 3.81)
        (name "ACBUS0" (effects (font (size 1.27 1.27))))
        (number "26" (effects (font (size 1.27 1.27))))
      )
      (pin bidirectional line (at 15.24 5.08 180) (length 3.81)
        (name "ACBUS1" (effects (font (size 1.27 1.27))))
        (number "27" (effects (font (size 1.27 1.27))))
      )
      (pin bidirectional line (at 15.24 2.54 180) (length 3.81)
        (name "ACBUS2" (effects (font (size 1.27 1.27))))
        (number "28" (effects (font (size 1.27 1.27))))
      )
      (pin bidirectional line (at 15.24 0 180) (length 3.81)
        (name "ACBUS3" (effects (font (size 1.27 1.27))))
        (number "29" (effects (font (size 1.27 1.27))))
      )
      (pin bidirectional line (at 15.24 -2.54 180) (length 3.81)
        (name "ACBUS4" (effects (font (size 1.27 1.27))))
        (number "30" (effects (font (size 1.27 1.27))))
      )
      (pin bidirectional line (at 15.24 -5.08 180) (length 3.81)
        (name "ACBUS5" (effects (font (size 1.27 1.27))))
        (number "32" (effects (font (size 1.27 1.27))))
      )
      (pin bidirectional line (at 15.24 -7.62 180) (length 3.81)
        (name "ACBUS6" (effects (font (size 1.27 1.27))))
        (number "33" (effects (font (size 1.27 1.27))))
      )
      (pin bidirectional line (at 15.24 -10.16 180) (length 3.81)
        (name "ACBUS7" (effects (font (size 1.27 1.27))))
        (number "34" (effects (font (size 1.27 1.27))))
      )
    )
    (symbol "FT2232HL_3_1"
      (rectangle (start -11.43 10.16) (end 11.43 -12.7)
        (stroke (width 0.254) (type default) (color 0 0 0 0))
        (fill (type background))
      )
      (pin bidirectional line (at 15.24 7.62 180) (length 3.81)
        (name "BDBUS0" (effects (font (size 1.27 1.27))))
        (number "38" (effects (font (size 1.27 1.27))))
      )
      (pin bidirectional line (at 15.24 5.08 180) (length 3.81)
        (name "BDBUS1" (effects (font (size 1.27 1.27))))
        (number "39" (effects (font (size 1.27 1.27))))
      )
      (pin bidirectional line (at 15.24 2.54 180) (length 3.81)
        (name "BDBUS2" (effects (font (size 1.27 1.27))))
        (number "40" (effects (font (size 1.27 1.27))))
      )
      (pin bidirectional line (at 15.24 0 180) (length 3.81)
        (name "BDBUS3" (effects (font (size 1.27 1.27))))
        (number "41" (effects (font (size 1.27 1.27))))
      )
      (pin bidirectional line (at 15.24 -2.54 180) (length 3.81)
        (name "BDBUS4" (effects (font (size 1.27 1.27))))
        (number "43" (effects (font (size 1.27 1.27))))
      )
      (pin bidirectional line (at 15.24 -5.08 180) (length 3.81)
        (name "BDBUS5" (effects (font (size 1.27 1.27))))
        (number "44" (effects (font (size 1.27 1.27))))
      )
      (pin bidirectional line (at 15.24 -7.62 180) (length 3.81)
        (name "BDBUS6" (effects (font (size 1.27 1.27))))
        (number "45" (effects (font (size 1.27 1.27))))
      )
      (pin bidirectional line (at 15.24 -10.16 180) (length 3.81)
        (name "BDBUS7" (effects (font (size 1.27 1.27))))
        (number "46" (effects (font (size 1.27 1.27))))
      )
    )
    (symbol "FT2232HL_4_1"
      (rectangle (start -11.43 10.16) (end 11.43 -12.7)
        (stroke (width 0.254) (type default) (color 0 0 0 0))
        (fill (type background))
      )
      (pin bidirectional line (at 15.24 7.62 180) (length 3.81)
        (name "BCBUS0" (effects (font (size 1.27 1.27))))
        (number "48" (effects (font (size 1.27 1.27))))
      )
      (pin bidirectional line (at 15.24 5.08 180) (length 3.81)
        (name "BCBUS1" (effects (font (size 1.27 1.27))))
        (number "52" (effects (font (size 1.27 1.27))))
      )
      (pin bidirectional line (at 15.24 2.54 180) (length 3.81)
        (name "BCBUS2" (effects (font (size 1.27 1.27))))
        (number "53" (effects (font (size 1.27 1.27))))
      )
      (pin bidirectional line (at 15.24 0 180) (length 3.81)
        (name "BCBUS3" (effects (font (size 1.27 1.27))))
        (number "54" (effects (font (size 1.27 1.27))))
      )
      (pin bidirectional line (at 15.24 -2.54 180) (length 3.81)
        (name "BCBUS4" (effects (font (size 1.27 1.27))))
        (number "55" (effects (font (size 1.27 1.27))))
      )
      (pin bidirectional line (at 15.24 -5.08 180) (length 3.81)
        (name "BCBUS5" (effects (font (size 1.27 1.27))))
        (number "57" (effects (font (size 1.27 1.27))))
      )
      (pin bidirectional line (at 15.24 -7.62 180) (length 3.81)
        (name "BCBUS6" (effects (font (size 1.27 1.27))))
        (number "58" (effects (font (size 1.27 1.27))))
      )
      (pin bidirectional line (at 15.24 -10.16 180) (length 3.81)
        (name "BCBUS7" (effects (font (size 1.27 1.27))))
        (number "59" (effects (font (size 1.27 1.27))))
      )
    )
    (symbol "FT2232HL_5_1"
      (rectangle (start -11.43 5.08) (end 11.43 -5.08)
        (stroke (width 0.254) (type default) (color 0 0 0 0))
        (fill (type background))
      )
      (pin bidirectional line (at 15.24 2.54 180) (length 3.81)
        (name "EEDATA" (effects (font (size 1.27 1.27))))
        (number "61" (effects (font (size 1.27 1.27))))
      )
      (pin output line (at 15.24 0 180) (length 3.81)
        (name "EECLK" (effects (font (size 1.27 1.27))))
        (number "62" (effects (font (size 1.27 1.27))))
      )
      (pin output line (at 15.24 -2.54 180) (length 3.81)
        (name "EECS" (effects (font (size 1.27 1.27))))
        (number "63" (effects (font (size 1.27 1.27))))
      )
    )
    (symbol "FT2232HL_6_1"
      (rectangle (start -11.43 57.15) (end 11.43 -59.69)
        (stroke (width 0.254) (type default) (color 0 0 0 0))
        (fill (type background))
      )
      (pin power_in line (at 15.24 -39.37 180) (length 3.81)
        (name "GND" (effects (font (size 1.27 1.27))))
        (number "1" (effects (font (size 1.27 1.27))))
      )
      (pin power_in line (at 15.24 -34.29 180) (length 3.81)
        (name "AGND" (effects (font (size 1.27 1.27))))
        (number "10" (effects (font (size 1.27 1.27))))
      )
      (pin power_in line (at 15.24 -44.45 180) (length 3.81)
        (name "GND" (effects (font (size 1.27 1.27))))
        (number "11" (effects (font (size 1.27 1.27))))
      )
      (pin power_in line (at 15.24 19.05 180) (length 3.81)
        (name "VCORE" (effects (font (size 1.27 1.27))))
        (number "12" (effects (font (size 1.27 1.27))))
      )
      (pin input line (at 15.24 -19.05 180) (length 3.81)
        (name "TEST" (effects (font (size 1.27 1.27))))
        (number "13" (effects (font (size 1.27 1.27))))
      )
      (pin input line (at 15.24 -1.27 180) (length 3.81)
        (name "~{RESET}" (effects (font (size 1.27 1.27))))
        (number "14" (effects (font (size 1.27 1.27))))
      )
      (pin power_in line (at 15.24 -46.99 180) (length 3.81)
        (name "GND" (effects (font (size 1.27 1.27))))
        (number "15" (effects (font (size 1.27 1.27))))
      )
      (pin input line (at 15.24 -3.81 180) (length 3.81)
        (name "OSCI" (effects (font (size 1.27 1.27))))
        (number "2" (effects (font (size 1.27 1.27))))
      )
      (pin power_in line (at 15.24 46.99 180) (length 3.81)
        (name "VCCIO" (effects (font (size 1.27 1.27))))
        (number "20" (effects (font (size 1.27 1.27))))
      )
      (pin power_in line (at 15.24 -49.53 180) (length 3.81)
        (name "GND" (effects (font (size 1.27 1.27))))
        (number "25" (effects (font (size 1.27 1.27))))
      )
      (pin output line (at 15.24 -13.97 180) (length 3.81)
        (name "OSCO" (effects (font (size 1.27 1.27))))
        (number "3" (effects (font (size 1.27 1.27))))
      )
      (pin power_in line (at 15.24 49.53 180) (length 3.81)
        (name "VCCIO" (effects (font (size 1.27 1.27))))
        (number "31" (effects (font (size 1.27 1.27))))
      )
      (pin power_in line (at 15.24 -52.07 180) (length 3.81)
        (name "GND" (effects (font (size 1.27 1.27))))
        (number "35" (effects (font (size 1.27 1.27))))
      )
      (pin output line (at 15.24 -21.59 180) (length 3.81)
        (name "~{SUSPEND}" (effects (font (size 1.27 1.27))))
        (number "36" (effects (font (size 1.27 1.27))))
      )
      (pin power_in line (at 15.24 21.59 180) (length 3.81)
        (name "VCORE" (effects (font (size 1.27 1.27))))
        (number "37" (effects (font (size 1.27 1.27))))
      )
      (pin power_in line (at 15.24 39.37 180) (length 3.81)
        (name "VPHY" (effects (font (size 1.27 1.27))))
        (number "4" (effects (font (size 1.27 1.27))))
      )
      (pin power_in line (at 15.24 52.07 180) (length 3.81)
        (name "VCCIO" (effects (font (size 1.27 1.27))))
        (number "42" (effects (font (size 1.27 1.27))))
      )
      (pin power_in line (at 15.24 -54.61 180) (length 3.81)
        (name "GND" (effects (font (size 1.27 1.27))))
        (number "47" (effects (font (size 1.27 1.27))))
      )
      (pin power_out line (at 15.24 29.21 180) (length 3.81)
        (name "VREGOUT" (effects (font (size 1.27 1.27))))
        (number "49" (effects (font (size 1.27 1.27))))
      )
      (pin power_in line (at 15.24 -41.91 180) (length 3.81)
        (name "GND" (effects (font (size 1.27 1.27))))
        (number "5" (effects (font (size 1.27 1.27))))
      )
      (pin power_in line (at 15.24 34.29 180) (length 3.81)
        (name "VREGIN" (effects (font (size 1.27 1.27))))
        (number "50" (effects (font (size 1.27 1.27))))
      )
      (pin power_in line (at 15.24 -57.15 180) (length 3.81)
        (name "GND" (effects (font (size 1.27 1.27))))
        (number "51" (effects (font (size 1.27 1.27))))
      )
      (pin power_in line (at 15.24 54.61 180) (length 3.81)
        (name "VCCIO" (effects (font (size 1.27 1.27))))
        (number "56" (effects (font (size 1.27 1.27))))
      )
      (pin output line (at 15.24 3.81 180) (length 3.81)
        (name "REF" (effects (font (size 1.27 1.27))))
        (number "6" (effects (font (size 1.27 1.27))))
      )
      (pin output line (at 15.24 -24.13 180) (length 3.81)
        (name "~{PWREN}" (effects (font (size 1.27 1.27))))
        (number "60" (effects (font (size 1.27 1.27))))
      )
      (pin power_in line (at 15.24 24.13 180) (length 3.81)
        (name "VCORE" (effects (font (size 1.27 1.27))))
        (number "64" (effects (font (size 1.27 1.27))))
      )
      (pin bidirectional line (at 15.24 13.97 180) (length 3.81)
        (name "DM" (effects (font (size 1.27 1.27))))
        (number "7" (effects (font (size 1.27 1.27))))
      )
      (pin bidirectional line (at 15.24 8.89 180) (length 3.81)
        (name "DP" (effects (font (size 1.27 1.27))))
        (number "8" (effects (font (size 1.27 1.27))))
      )
      (pin input line (at 15.24 41.91 180) (length 3.81)
        (name "VPLL" (effects (font (size 1.27 1.27))))
        (number "9" (effects (font (size 1.27 1.27))))
      )
    )
  )
  (symbol "GND" (power) (pin_numbers hide) (pin_names (offset 0) hide) (in_bom no) (on_board yes)
    (property "Reference" "#PWR" (id 0) (at 0 -6.35 0)
      (effects (font (size 1.27 1.27)) hide)
    )
    (property "Value" "GND" (id 1) (at 0 -3.81 0)
      (effects (font (size 1.27 1.27)) hide)
    )
    (property "Footprint" "" (id 2) (at 0 0 0)
      (effects (font (size 1.27 1.27)) hide)
    )
    (property "Datasheet" "" (id 3) (at 0 0 0)
      (effects (font (size 1.27 1.27)) hide)
    )
    (property "ki_keywords" "power-flag, gnd, ground" (id 4) (at 0 0 0)
      (effects (font (size 1.27 1.27)) hide)
    )
    (property "ki_description" "Power symbol, creates a global label with name \"GND\" , ground" (id 5) (at 0 0 0)
      (effects (font (size 1.27 1.27)) hide)
    )
    (symbol "GND_0_1"
      (polyline
        (pts
          (xy -0.762 -1.27)
          (xy 0.762 -1.27)
        )
        (stroke (width 0.508) (type default) (color 0 0 0 0))
        (fill (type none))
      )
      (polyline
        (pts
          (xy 0 0)
          (xy 0 -1.27)
        )
        (stroke (width 0) (type default) (color 0 0 0 0))
        (fill (type none))
      )
    )
    (symbol "GND_1_1"
      (pin power_in line (at 0 0 270) (length 0) hide
        (name "GND" (effects (font (size 1.27 1.27))))
        (number "1" (effects (font (size 1.27 1.27))))
      )
    )
  )
  (symbol "LM385BZ-2.5" (pin_numbers hide) (pin_names (offset 0.0254) hide) (in_bom yes) (on_board yes)
    (property "Reference" "U" (id 0) (at 2.54 2.54 0)
      (effects (font (size 1.27 1.27)) (justify left))
    )
    (property "Value" "LM385BZ-2.5" (id 1) (at 2.54 0 0)
      (effects (font (size 1.27 1.27)) (justify left))
    )
    (property "Footprint" "Package_TO_SOT_THT:TO-92_Inline" (id 2) (at 2.54 -5.08 0)
      (effects (font (size 1.27 1.27) italic) (justify left) hide)
    )
    (property "Datasheet" "http://www.onsemi.com/pub_link/Collateral/LM285-D.PDF" (id 3) (at 2.54 -2.54 0)
      (effects (font (size 1.27 1.27) italic) (justify left) hide)
    )
    (property "ki_keywords" "diode device voltage reference" (id 4) (at 0 0 0)
      (effects (font (size 1.27 1.27)) hide)
    )
    (property "ki_description" "2.5V Micropower Voltage Reference Diodes, TO-92" (id 5) (at 0 0 0)
      (effects (font (size 1.27 1.27)) hide)
    )
    (property "ki_fp_filters" "TO?92*Inline*" (id 6) (at 0 0 0)
      (effects (font (size 1.27 1.27)) hide)
    )
    (symbol "LM385BZ-2.5_0_1"
      (polyline
        (pts
          (xy 0 -1.27)
          (xy 0 0)
          (xy 0 1.27)
        )
        (stroke (width 0) (type default) (color 0 0 0 0))
        (fill (type none))
      )
      (polyline
        (pts
          (xy 1.27 -1.27)
          (xy 0 0.635)
          (xy -1.27 -1.27)
          (xy 1.27 -1.27)
        )
        (stroke (width 0.2032) (type default) (color 0 0 0 0))
        (fill (type none))
      )
      (polyline
        (pts
          (xy 1.27 0)
          (xy 1.27 0.635)
          (xy -1.27 0.635)
          (xy -1.27 1.27)
        )
        (stroke (width 0.2032) (type default) (color 0 0 0 0))
        (fill (type none))
      )
    )
    (symbol "LM385BZ-2.5_1_1"
      (pin passive line (at 0 5.08 270) (length 5.08)
        (name "K" (effects (font (size 1.27 1.27))))
        (number "2" (effects (font (size 1.27 1.27))))
      )
      (pin passive line (at 0 -5.08 90) (length 5.08)
        (name "A" (effects (font (size 1.27 1.27))))
        (number "3" (effects (font (size 1.27 1.27))))
      )
    )
  )
  (symbol "MCP1541-TO" (in_bom yes) (on_board yes)
    (property "Reference" "U" (id 0) (at 1.27 8.89 0)
      (effects (font (size 1.27 1.27)) (justify left))
    )
    (property "Value" "MCP1541-TO" (id 1) (at 1.27 6.35 0)
      (effects (font (size 1.27 1.27)) (justify left))
    )
    (property "Footprint" "Package_TO_SOT_THT:TO-92_Inline" (id 2) (at 5.08 -7.62 0)
      (effects (font (size 1.27 1.27) italic) (justify left) hide)
    )
    (property "Datasheet" "http://ww1.microchip.com/downloads/en/devicedoc/21653b.pdf" (id 3) (at 5.08 -10.16 0)
      (effects (font (size 1.27 1.27) italic) (justify left) hide)
    )
    (property "ki_keywords" "Voltage Reference 4.096V" (id 4) (at 0 0 0)
      (effects (font (size 1.27 1.27)) hide)
    )
    (property "ki_description" "4.096V Voltage Reference, TO-92" (id 5) (at 0 0 0)
      (effects (font (size 1.27 1.27)) hide)
    )
    (property "ki_fp_filters" "TO*92*" (id 6) (at 0 0 0)
      (effects (font (size 1.27 1.27)) hide)
    )
    (symbol "MCP1541-TO_0_1"
      (rectangle (start -2.54 5.08) (end 7.62 -5.08)
        (stroke (width 0.254) (type default) (color 0 0 0 0))
        (fill (type background))
      )
    )
    (symbol "MCP1541-TO_1_1"
      (pin power_in line (at 0 -7.62 90) (length 2.54)
        (name "Vss" (effects (font (size 1.27 1.27))))
        (number "1" (effects (font (size 1.27 1.27))))
      )
      (pin power_out line (at 10.16 0 180) (length 2.54)
        (name "Vout" (effects (font (size 1.27 1.27))))
        (number "2" (effects (font (size 1.27 1.27))))
      )
      (pin power_in line (at 0 7.62 270) (length 2.54)
        (name "Vin" (effects (font (size 1.27 1.27))))
        (number "3" (effects (font (size 1.27 1.27))))
      )
    )
  )
  (symbol "Male Header 2x10 distributed" (pin_names hide) (in_bom yes) (on_board yes)
    (property "Reference" "JP" (id 0) (at 0 5.08 0)
      (effects (font (size 1.27 1.27)))
    )
    (property "Value" "Male Header 2x10 distributed" (id 1) (at 0 -5.08 0)
      (effects (font (size 1.27 1.27)))
    )
    (property "Footprint" "" (id 2) (at 0 0 0)
      (effects (font (size 1.27 1.27)) hide)
    )
    (property "Datasheet" "" (id 3) (at 0 0 0)
      (effects (font (size 1.27 1.27)) hide)
    )
    (symbol "Male Header 2x10 distributed_0_1"
      (rectangle (start -3.175 1.27) (end 3.175 -1.27)
        (stroke (width 0.127) (type default) (color 0 0 0 0))
        (fill (type none))
      )
      (circle (center -1.905 0) (radius 0.635)
        (stroke (width 0.127) (type default) (color 0 0 0 0))
        (fill (type none))
      )
      (polyline
        (pts
          (xy -2.54 0)
          (xy -3.175 0)
        )
        (stroke (width 0.1524) (type default) (color 0 0 0 0))
        (fill (type none))
      )
      (polyline
        (pts
          (xy 2.54 0)
          (xy 3.175 0)
        )
        (stroke (width 0.1524) (type default) (color 0 0 0 0))
        (fill (type none))
      )
      (circle (center 1.905 0) (radius 0.635)
        (stroke (width 0.127) (type default) (color 0 0 0 0))
        (fill (type none))
      )
    )
    (symbol "Male Header 2x10 distributed_1_1"
      (pin passive line (at -7.62 0 0) (length 4.445)
        (name "9" (effects (font (size 1.27 1.27))))
        (number "1" (effects (font (size 1.27 1.27))))
      )
      (pin passive line (at 7.62 0 180) (length 4.445)
        (name "10" (effects (font (size 1.27 1.27))))
        (number "2" (effects (font (size 1.27 1.27))))
      )
    )
    (symbol "Male Header 2x10 distributed_2_1"
      (pin passive line (at -7.62 0 0) (length 4.445)
        (name "9" (effects (font (size 1.27 1.27))))
        (number "3" (effects (font (size 1.27 1.27))))
      )
      (pin passive line (at 7.62 0 180) (length 4.445)
        (name "10" (effects (font (size 1.27 1.27))))
        (number "4" (effects (font (size 1.27 1.27))))
      )
    )
    (symbol "Male Header 2x10 distributed_3_1"
      (pin passive line (at -7.62 0 0) (length 4.445)
        (name "9" (effects (font (size 1.27 1.27))))
        (number "5" (effects (font (size 1.27 1.27))))
      )
      (pin passive line (at 7.62 0 180) (length 4.445)
        (name "10" (effects (font (size 1.27 1.27))))
        (number "6" (effects (font (size 1.27 1.27))))
      )
    )
    (symbol "Male Header 2x10 distributed_4_1"
      (pin passive line (at -7.62 0 0) (length 4.445)
        (name "9" (effects (font (size 1.27 1.27))))
        (number "7" (effects (font (size 1.27 1.27))))
      )
      (pin passive line (at 7.62 0 180) (length 4.445)
        (name "10" (effects (font (size 1.27 1.27))))
        (number "8" (effects (font (size 1.27 1.27))))
      )
    )
    (symbol "Male Header 2x10 distributed_5_1"
      (pin passive line (at 7.62 0 180) (length 4.445)
        (name "10" (effects (font (size 1.27 1.27))))
        (number "10" (effects (font (size 1.27 1.27))))
      )
      (pin passive line (at -7.62 0 0) (length 4.445)
        (name "9" (effects (font (size 1.27 1.27))))
        (number "9" (effects (font (size 1.27 1.27))))
      )
    )
  )
  (symbol "Male_Header_2x10-2.54" (pin_names hide) (in_bom yes) (on_board yes)
    (property "Reference" "JP" (id 0) (at 0 23.495 0)
      (effects (font (size 1.27 1.27)))
    )
    (property "Value" "Male_Header_2x10-2.54" (id 1) (at 0 -5.715 0)
      (effects (font (size 1.27 1.27)))
    )
    (property "Footprint" "" (id 2) (at 0 0 0)
      (effects (font (size 1.27 1.27)) hide)
    )
    (property "Datasheet" "" (id 3) (at 0 0 0)
      (effects (font (size 1.27 1.27)) hide)
    )
    (symbol "Male_Header_2x10-2.54_0_1"
      (rectangle (start -2.54 21.59) (end 2.54 -3.81)
        (stroke (width 0.127) (type default) (color 0 0 0 0))
        (fill (type none))
      )
    )
    (symbol "Male_Header_2x10-2.54_1_1"
      (pin passive inverted (at -10.16 20.32 0) (length 7.62)
        (name "1" (effects (font (size 1.27 1.27))))
        (number "1" (effects (font (size 1.27 1.27))))
      )
      (pin passive inverted (at -10.16 -2.54 0) (length 7.62)
        (name "10" (effects (font (size 1.27 1.27))))
        (number "10" (effects (font (size 1.27 1.27))))
      )
      (pin passive inverted (at 10.16 20.32 180) (length 7.62)
        (name "11" (effects (font (size 1.27 1.27))))
        (number "11" (effects (font (size 1.27 1.27))))
      )
      (pin passive inverted (at 10.16 17.78 180) (length 7.62)
        (name "12" (effects (font (size 1.27 1.27))))
        (number "12" (effects (font (size 1.27 1.27))))
      )
      (pin passive inverted (at 10.16 15.24 180) (length 7.62)
        (name "13" (effects (font (size 1.27 1.27))))
        (number "13" (effects (font (size 1.27 1.27))))
      )
      (pin passive inverted (at 10.16 12.7 180) (length 7.62)
        (name "14" (effects (font (size 1.27 1.27))))
        (number "14" (effects (font (size 1.27 1.27))))
      )
      (pin passive inverted (at 10.16 10.16 180) (length 7.62)
        (name "15" (effects (font (size 1.27 1.27))))
        (number "15" (effects (font (size 1.27 1.27))))
      )
      (pin passive inverted (at 10.16 7.62 180) (length 7.62)
        (name "16" (effects (font (size 1.27 1.27))))
        (number "16" (effects (font (size 1.27 1.27))))
      )
      (pin passive inverted (at 10.16 5.08 180) (length 7.62)
        (name "17" (effects (font (size 1.27 1.27))))
        (number "17" (effects (font (size 1.27 1.27))))
      )
      (pin passive inverted (at 10.16 2.54 180) (length 7.62)
        (name "18" (effects (font (size 1.27 1.27))))
        (number "18" (effects (font (size 1.27 1.27))))
      )
      (pin passive inverted (at 10.16 0 180) (length 7.62)
        (name "19" (effects (font (size 1.27 1.27))))
        (number "19" (effects (font (size 1.27 1.27))))
      )
      (pin passive inverted (at -10.16 17.78 0) (length 7.62)
        (name "2" (effects (font (size 1.27 1.27))))
        (number "2" (effects (font (size 1.27 1.27))))
      )
      (pin passive inverted (at 10.16 -2.54 180) (length 7.62)
        (name "20" (effects (font (size 1.27 1.27))))
        (number "20" (effects (font (size 1.27 1.27))))
      )
      (pin passive inverted (at -10.16 15.24 0) (length 7.62)
        (name "3" (effects (font (size 1.27 1.27))))
        (number "3" (effects (font (size 1.27 1.27))))
      )
      (pin passive inverted (at -10.16 12.7 0) (length 7.62)
        (name "4" (effects (font (size 1.27 1.27))))
        (number "4" (effects (font (size 1.27 1.27))))
      )
      (pin passive inverted (at -10.16 10.16 0) (length 7.62)
        (name "5" (effects (font (size 1.27 1.27))))
        (number "5" (effects (font (size 1.27 1.27))))
      )
      (pin passive inverted (at -10.16 7.62 0) (length 7.62)
        (name "6" (effects (font (size 1.27 1.27))))
        (number "6" (effects (font (size 1.27 1.27))))
      )
      (pin passive inverted (at -10.16 5.08 0) (length 7.62)
        (name "7" (effects (font (size 1.27 1.27))))
        (number "7" (effects (font (size 1.27 1.27))))
      )
      (pin passive inverted (at -10.16 2.54 0) (length 7.62)
        (name "8" (effects (font (size 1.27 1.27))))
        (number "8" (effects (font (size 1.27 1.27))))
      )
      (pin passive inverted (at -10.16 0 0) (length 7.62)
        (name "9" (effects (font (size 1.27 1.27))))
        (number "9" (effects (font (size 1.27 1.27))))
      )
    )
  )
  (symbol "NPN-BCE" (pin_numbers hide) (pin_names (offset 0) hide) (in_bom yes) (on_board yes)
    (property "Reference" "Q" (id 0) (at 5.08 1.27 0)
      (effects (font (size 1.27 1.27)) (justify left))
    )
    (property "Value" "NPN-BCE" (id 1) (at 5.08 -1.27 0)
      (effects (font (size 1.27 1.27)) (justify left))
    )
    (property "Footprint" "" (id 2) (at 5.08 2.54 0)
      (effects (font (size 1.27 1.27)) hide)
    )
    (property "Datasheet" "~" (id 3) (at 0 0 0)
      (effects (font (size 1.27 1.27)) hide)
    )
    (property "ki_keywords" "transistor NPN" (id 4) (at 0 0 0)
      (effects (font (size 1.27 1.27)) hide)
    )
    (property "ki_description" "NPN transistor, base/collector/emitter" (id 5) (at 0 0 0)
      (effects (font (size 1.27 1.27)) hide)
    )
    (symbol "NPN-BCE_0_1"
      (polyline
        (pts
          (xy 0.635 0.635)
          (xy 2.54 2.54)
        )
        (stroke (width 0) (type default) (color 0 0 0 0))
        (fill (type none))
      )
      (polyline
        (pts
          (xy 0.635 -0.635)
          (xy 2.54 -2.54)
          (xy 2.54 -2.54)
        )
        (stroke (width 0) (type default) (color 0 0 0 0))
        (fill (type none))
      )
      (polyline
        (pts
          (xy 0.635 1.905)
          (xy 0.635 -1.905)
          (xy 0.635 -1.905)
        )
        (stroke (width 0.508) (type default) (color 0 0 0 0))
        (fill (type none))
      )
      (polyline
        (pts
          (xy 1.27 -1.778)
          (xy 1.778 -1.27)
          (xy 2.286 -2.286)
          (xy 1.27 -1.778)
          (xy 1.27 -1.778)
        )
        (stroke (width 0) (type default) (color 0 0 0 0))
        (fill (type outline))
      )
    )
    (symbol "NPN-BCE_1_1"
      (pin input line (at -2.54 0 0) (length 3)
        (name "B" (effects (font (size 1.27 1.27))))
        (number "1" (effects (font (size 1.27 1.27))))
      )
      (pin passive line (at 2.54 2.54 270) (length 0)
        (name "C" (effects (font (size 1.27 1.27))))
        (number "2" (effects (font (size 1.27 1.27))))
      )
      (pin passive line (at 2.54 -2.54 90) (length 0)
        (name "E" (effects (font (size 1.27 1.27))))
        (number "3" (effects (font (size 1.27 1.27))))
      )
    )
  )
  (symbol "NPN-CBE" (pin_numbers hide) (pin_names (offset 0) hide) (in_bom yes) (on_board yes)
    (property "Reference" "Q" (id 0) (at 5.08 1.27 0)
      (effects (font (size 1.27 1.27)) (justify left))
    )
    (property "Value" "NPN-CBE" (id 1) (at 5.08 -1.27 0)
      (effects (font (size 1.27 1.27)) (justify left))
    )
    (property "Footprint" "" (id 2) (at 5.08 2.54 0)
      (effects (font (size 1.27 1.27)) hide)
    )
    (property "Datasheet" "~" (id 3) (at 0 0 0)
      (effects (font (size 1.27 1.27)) hide)
    )
    (property "ki_keywords" "transistor NPN" (id 4) (at 0 0 0)
      (effects (font (size 1.27 1.27)) hide)
    )
    (property "ki_description" "NPN transistor, base/collector/emitter" (id 5) (at 0 0 0)
      (effects (font (size 1.27 1.27)) hide)
    )
    (symbol "NPN-CBE_0_1"
      (polyline
        (pts
          (xy 0.635 0.635)
          (xy 2.54 2.54)
        )
        (stroke (width 0) (type default) (color 0 0 0 0))
        (fill (type none))
      )
      (polyline
        (pts
          (xy 0.635 -0.635)
          (xy 2.54 -2.54)
          (xy 2.54 -2.54)
        )
        (stroke (width 0) (type default) (color 0 0 0 0))
        (fill (type none))
      )
      (polyline
        (pts
          (xy 0.635 1.905)
          (xy 0.635 -1.905)
          (xy 0.635 -1.905)
        )
        (stroke (width 0.508) (type default) (color 0 0 0 0))
        (fill (type none))
      )
      (polyline
        (pts
          (xy 1.27 -1.778)
          (xy 1.778 -1.27)
          (xy 2.286 -2.286)
          (xy 1.27 -1.778)
          (xy 1.27 -1.778)
        )
        (stroke (width 0) (type default) (color 0 0 0 0))
        (fill (type outline))
      )
    )
    (symbol "NPN-CBE_1_1"
      (pin passive line (at 2.54 2.54 270) (length 0)
        (name "C" (effects (font (size 1.27 1.27))))
        (number "1" (effects (font (size 1.27 1.27))))
      )
      (pin input line (at -2.54 0 0) (length 3)
        (name "B" (effects (font (size 1.27 1.27))))
        (number "2" (effects (font (size 1.27 1.27))))
      )
      (pin passive line (at 2.54 -2.54 90) (length 0)
        (name "E" (effects (font (size 1.27 1.27))))
        (number "3" (effects (font (size 1.27 1.27))))
      )
    )
  )
  (symbol "PNP-BCE" (pin_numbers hide) (pin_names (offset 0) hide) (in_bom yes) (on_board yes)
    (property "Reference" "Q?" (id 0) (at 5.08 1.27 0)
      (effects (font (size 1.27 1.27)) (justify left))
    )
    (property "Value" "PNP-BCE" (id 1) (at 5.08 -1.27 0)
      (effects (font (size 1.27 1.27)) (justify left))
    )
    (property "Footprint" "" (id 2) (at 5.08 2.54 0)
      (effects (font (size 1.27 1.27)) hide)
    )
    (property "Datasheet" "~" (id 3) (at 5.715 -3.81 0)
      (effects (font (size 1.27 1.27)) hide)
    )
    (property "ki_keywords" "transistor PNP small" (id 4) (at 0 0 0)
      (effects (font (size 1.27 1.27)) hide)
    )
    (property "ki_description" "PNP transistor, base/collector/emitter" (id 5) (at 0 0 0)
      (effects (font (size 1.27 1.27)) hide)
    )
    (symbol "PNP-BCE_0_1"
      (polyline
        (pts
          (xy 0.635 0.635)
          (xy 2.54 2.54)
        )
        (stroke (width 0) (type default) (color 0 0 0 0))
        (fill (type none))
      )
      (polyline
        (pts
          (xy 0.635 -0.635)
          (xy 2.54 -2.54)
          (xy 2.54 -2.54)
        )
        (stroke (width 0) (type default) (color 0 0 0 0))
        (fill (type none))
      )
      (polyline
        (pts
          (xy 0.635 1.905)
          (xy 0.635 -1.905)
          (xy 0.635 -1.905)
        )
        (stroke (width 0.508) (type default) (color 0 0 0 0))
        (fill (type none))
      )
      (polyline
        (pts
          (xy 1.5494 2.032)
          (xy 2.0574 1.524)
          (xy 1.0414 1.016)
          (xy 1.5494 2.032)
          (xy 1.5494 2.032)
        )
        (stroke (width 0) (type default) (color 0 0 0 0))
        (fill (type outline))
      )
    )
    (symbol "PNP-BCE_1_1"
      (pin input line (at -2.54 0 0) (length 3)
        (name "B" (effects (font (size 1.27 1.27))))
        (number "1" (effects (font (size 1.27 1.27))))
      )
      (pin passive line (at 2.54 2.54 270) (length 0)
        (name "C" (effects (font (size 1.27 1.27))))
        (number "2" (effects (font (size 1.27 1.27))))
      )
      (pin passive line (at 2.54 -2.54 90) (length 0)
        (name "E" (effects (font (size 1.27 1.27))))
        (number "3" (effects (font (size 1.27 1.27))))
      )
    )
  )
  (symbol "PNP-CBE" (pin_numbers hide) (pin_names (offset 0) hide) (in_bom yes) (on_board yes)
    (property "Reference" "Q?" (id 0) (at 5.08 1.27 0)
      (effects (font (size 1.27 1.27)) (justify left))
    )
    (property "Value" "PNP-CBE" (id 1) (at 5.08 -1.27 0)
      (effects (font (size 1.27 1.27)) (justify left))
    )
    (property "Footprint" "" (id 2) (at 5.08 2.54 0)
      (effects (font (size 1.27 1.27)) hide)
    )
    (property "Datasheet" "~" (id 3) (at 5.715 -3.81 0)
      (effects (font (size 1.27 1.27)) hide)
    )
    (property "ki_keywords" "transistor PNP small" (id 4) (at 0 0 0)
      (effects (font (size 1.27 1.27)) hide)
    )
    (property "ki_description" "PNP transistor, base/collector/emitter" (id 5) (at 0 0 0)
      (effects (font (size 1.27 1.27)) hide)
    )
    (symbol "PNP-CBE_0_1"
      (polyline
        (pts
          (xy 0.635 0.635)
          (xy 2.54 2.54)
        )
        (stroke (width 0) (type default) (color 0 0 0 0))
        (fill (type none))
      )
      (polyline
        (pts
          (xy 0.635 -0.635)
          (xy 2.54 -2.54)
          (xy 2.54 -2.54)
        )
        (stroke (width 0) (type default) (color 0 0 0 0))
        (fill (type none))
      )
      (polyline
        (pts
          (xy 0.635 1.905)
          (xy 0.635 -1.905)
          (xy 0.635 -1.905)
        )
        (stroke (width 0.508) (type default) (color 0 0 0 0))
        (fill (type none))
      )
      (polyline
        (pts
          (xy 1.5494 2.032)
          (xy 2.0574 1.524)
          (xy 1.0414 1.016)
          (xy 1.5494 2.032)
          (xy 1.5494 2.032)
        )
        (stroke (width 0) (type default) (color 0 0 0 0))
        (fill (type outline))
      )
    )
    (symbol "PNP-CBE_1_1"
      (pin passive line (at 2.54 2.54 270) (length 0)
        (name "C" (effects (font (size 1.27 1.27))))
        (number "1" (effects (font (size 1.27 1.27))))
      )
      (pin input line (at -2.54 0 0) (length 3)
        (name "B" (effects (font (size 1.27 1.27))))
        (number "2" (effects (font (size 1.27 1.27))))
      )
      (pin passive line (at 2.54 -2.54 90) (length 0)
        (name "E" (effects (font (size 1.27 1.27))))
        (number "3" (effects (font (size 1.27 1.27))))
      )
    )
  )
  (symbol "PNP-ECB" (pin_numbers hide) (pin_names (offset 0) hide) (in_bom yes) (on_board yes)
    (property "Reference" "Q?" (id 0) (at 5.08 1.27 0)
      (effects (font (size 1.27 1.27)) (justify left))
    )
    (property "Value" "PNP-ECB" (id 1) (at 5.08 -1.27 0)
      (effects (font (size 1.27 1.27)) (justify left))
    )
    (property "Footprint" "" (id 2) (at 5.08 2.54 0)
      (effects (font (size 1.27 1.27)) hide)
    )
    (property "Datasheet" "~" (id 3) (at 5.715 -3.81 0)
      (effects (font (size 1.27 1.27)) hide)
    )
    (property "ki_keywords" "transistor PNP small" (id 4) (at 0 0 0)
      (effects (font (size 1.27 1.27)) hide)
    )
    (property "ki_description" "PNP transistor, base/collector/emitter" (id 5) (at 0 0 0)
      (effects (font (size 1.27 1.27)) hide)
    )
    (symbol "PNP-ECB_0_1"
      (polyline
        (pts
          (xy 0.635 0.635)
          (xy 2.54 2.54)
        )
        (stroke (width 0) (type default) (color 0 0 0 0))
        (fill (type none))
      )
      (polyline
        (pts
          (xy 0.635 -0.635)
          (xy 2.54 -2.54)
          (xy 2.54 -2.54)
        )
        (stroke (width 0) (type default) (color 0 0 0 0))
        (fill (type none))
      )
      (polyline
        (pts
          (xy 0.635 1.905)
          (xy 0.635 -1.905)
          (xy 0.635 -1.905)
        )
        (stroke (width 0.508) (type default) (color 0 0 0 0))
        (fill (type none))
      )
      (polyline
        (pts
          (xy 1.5494 2.032)
          (xy 2.0574 1.524)
          (xy 1.0414 1.016)
          (xy 1.5494 2.032)
          (xy 1.5494 2.032)
        )
        (stroke (width 0) (type default) (color 0 0 0 0))
        (fill (type outline))
      )
    )
    (symbol "PNP-ECB_1_1"
      (pin passive line (at 2.54 -2.54 90) (length 0)
        (name "E" (effects (font (size 1.27 1.27))))
        (number "1" (effects (font (size 1.27 1.27))))
      )
      (pin passive line (at 2.54 2.54 270) (length 0)
        (name "C" (effects (font (size 1.27 1.27))))
        (number "2" (effects (font (size 1.27 1.27))))
      )
      (pin input line (at -2.54 0 0) (length 3)
        (name "B" (effects (font (size 1.27 1.27))))
        (number "3" (effects (font (size 1.27 1.27))))
      )
    )
  )
  (symbol "RES" (pin_numbers hide) (pin_names (offset 0.254) hide) (in_bom yes) (on_board yes)
    (property "Reference" "R" (id 0) (at 0.762 0.508 0)
      (effects (font (size 1.27 1.27)) (justify left))
    )
    (property "Value" "RES" (id 1) (at 0.762 -1.016 0)
      (effects (font (size 1.27 1.27)) (justify left))
    )
    (property "Footprint" "" (id 2) (at 0 0 0)
      (effects (font (size 1.27 1.27)) hide)
    )
    (property "Datasheet" "~" (id 3) (at 0 0 0)
      (effects (font (size 1.27 1.27)) hide)
    )
    (property "ki_keywords" "R resistor" (id 4) (at 0 0 0)
      (effects (font (size 1.27 1.27)) hide)
    )
    (property "ki_description" "Resistor, small symbol" (id 5) (at 0 0 0)
      (effects (font (size 1.27 1.27)) hide)
    )
    (property "ki_fp_filters" "R_*" (id 6) (at 0 0 0)
      (effects (font (size 1.27 1.27)) hide)
    )
    (symbol "RES_0_1"
      (rectangle (start -0.762 1.778) (end 0.762 -1.778)
        (stroke (width 0.2032) (type default) (color 0 0 0 0))
        (fill (type none))
      )
    )
    (symbol "RES_1_1"
      (pin passive line (at 0 2.54 270) (length 0.762)
        (name "~" (effects (font (size 1.27 1.27))))
        (number "1" (effects (font (size 1.27 1.27))))
      )
      (pin passive line (at 0 -2.54 90) (length 0.762)
        (name "~" (effects (font (size 1.27 1.27))))
        (number "2" (effects (font (size 1.27 1.27))))
      )
    )
  )
  (symbol "RPot" (pin_numbers hide) (pin_names (offset 1.016) hide) (in_bom yes) (on_board yes)
    (property "Reference" "RV" (id 0) (at -2.54 1.27 0)
      (effects (font (size 1.27 1.27)) (justify right))
    )
    (property "Value" "RPot" (id 1) (at -2.54 -1.27 0)
      (effects (font (size 1.27 1.27)) (justify right))
    )
    (property "Footprint" "" (id 2) (at 0 0 0)
      (effects (font (size 1.27 1.27)) hide)
    )
    (property "Datasheet" "~" (id 3) (at 0 0 0)
      (effects (font (size 1.27 1.27)) hide)
    )
    (property "ki_keywords" "resistor variable" (id 4) (at 0 0 0)
      (effects (font (size 1.27 1.27)) hide)
    )
    (property "ki_description" "Potentiometer" (id 5) (at 0 0 0)
      (effects (font (size 1.27 1.27)) hide)
    )
    (property "ki_fp_filters" "Potentiometer*" (id 6) (at 0 0 0)
      (effects (font (size 1.27 1.27)) hide)
    )
    (symbol "RPot_0_1"
      (rectangle (start -0.762 1.778) (end 0.762 -1.778)
        (stroke (width 0.2032) (type default) (color 0 0 0 0))
        (fill (type none))
      )
      (polyline
        (pts
          (xy 0.8382 0)
          (xy 1.9812 0.508)
          (xy 1.9812 -0.508)
          (xy 0.8382 0)
        )
        (stroke (width 0) (type default) (color 0 0 0 0))
        (fill (type outline))
      )
    )
    (symbol "RPot_1_1"
      (pin passive line (at 0 2.54 270) (length 0.762)
        (name "1" (effects (font (size 1.27 1.27))))
        (number "1" (effects (font (size 1.27 1.27))))
      )
      (pin passive line (at 2.54 0 180) (length 0.508)
        (name "2" (effects (font (size 1.27 1.27))))
        (number "2" (effects (font (size 1.27 1.27))))
      )
      (pin passive line (at 0 -2.54 90) (length 0.762)
        (name "3" (effects (font (size 1.27 1.27))))
        (number "3" (effects (font (size 1.27 1.27))))
      )
    )
  )
  (symbol "Switch 1PNO" (pin_numbers hide) (pin_names hide) (in_bom yes) (on_board yes)
    (property "Reference" "S" (id 0) (at 2.54 5.08 0)
      (effects (font (size 1.27 1.27)) (justify left))
    )
    (property "Value" "Switch 1PNO" (id 1) (at 2.54 2.54 0)
      (effects (font (size 1.27 1.27)) (justify left))
    )
    (property "Footprint" "Button_Switch_SMD:SW_Push_1P1T_NO_CK_KMR2" (id 2) (at 0 0 0)
      (effects (font (size 1.27 1.27)) hide)
    )
    (property "Datasheet" "" (id 3) (at 0 0 0)
      (effects (font (size 1.27 1.27)) hide)
    )
    (property "ki_keywords" "pushbutton switch" (id 4) (at 0 0 0)
      (effects (font (size 1.27 1.27)) hide)
    )
    (property "ki_description" "Pushbutton switch 1 pole normally open" (id 5) (at 0 0 0)
      (effects (font (size 1.27 1.27)) hide)
    )
    (symbol "Switch 1PNO_0_1"
      (polyline
        (pts
          (xy -1.27 2.286)
          (xy -0.254 -0.762)
        )
        (stroke (width 0.508) (type default) (color 0 0 0 0))
        (fill (type none))
      )
    )
    (symbol "Switch 1PNO_1_1"
      (pin passive inverted (at 0 -3.81 90) (length 3.175)
        (name "" (effects (font (size 1.27 1.27))))
        (number "" (effects (font (size 1.27 1.27))))
      )
      (pin passive inverted (at 0 5.08 270) (length 3.175)
        (name "A" (effects (font (size 1.27 1.27))))
        (number "1" (effects (font (size 1.27 1.27))))
      )
    )
  )
  (symbol "TL084" (pin_names (offset 0.127) hide) (in_bom yes) (on_board yes)
    (property "Reference" "U" (id 0) (at 0 6.35 0)
      (effects (font (size 1.27 1.27)))
    )
    (property "Value" "TL084" (id 1) (at 0 -6.35 0)
      (effects (font (size 1.27 1.27)))
    )
    (property "Footprint" "" (id 2) (at -3.81 2.54 0)
      (effects (font (size 1.27 1.27)) hide)
    )
    (property "Datasheet" "http://www.ti.com/lit/ds/symlink/tl081.pdf" (id 3) (at 0 10.16 0)
      (effects (font (size 1.27 1.27)) hide)
    )
    (property "ki_locked" "" (id 4) (at 0 0 0)
      (effects (font (size 1.27 1.27)))
    )
    (property "ki_keywords" "quad opamp" (id 5) (at 0 0 0)
      (effects (font (size 1.27 1.27)) hide)
    )
    (property "ki_description" "Quad JFET-Input Operational Amplifiers, DIP-14/SOIC-14/SSOP-14" (id 6) (at 0 0 0)
      (effects (font (size 1.27 1.27)) hide)
    )
    (property "ki_fp_filters" "SOIC*3.9x8.7mm*P1.27mm* DIP*W7.62mm* TSSOP*4.4x5mm*P0.65mm* SSOP*5.3x6.2mm*P0.65mm* MSOP*3x3mm*P0.5mm*" (id 7) (at 0 0 0)
      (effects (font (size 1.27 1.27)) hide)
    )
    (symbol "TL084_0_0"
      (text "+" (at -2.54 2.54 0)
        (effects (font (size 1.27 1.27)))
      )
      (text "-" (at -2.54 -2.54 0)
        (effects (font (size 1.27 1.27)))
      )
    )
    (symbol "TL084_1_1"
      (polyline
        (pts
          (xy -3.81 4.445)
          (xy 3.81 0)
          (xy -3.81 -4.445)
          (xy -3.81 4.445)
        )
        (stroke (width 0.254) (type default) (color 0 0 0 0))
        (fill (type background))
      )
      (pin output line (at 7.62 0 180) (length 3.81)
        (name "~" (effects (font (size 1.27 1.27))))
        (number "1" (effects (font (size 1.27 1.27))))
      )
      (pin input line (at -7.62 -2.54 0) (length 3.81)
        (name "-" (effects (font (size 1.27 1.27))))
        (number "2" (effects (font (size 1.27 1.27))))
      )
      (pin input line (at -7.62 2.54 0) (length 3.81)
        (name "+" (effects (font (size 1.27 1.27))))
        (number "3" (effects (font (size 1.27 1.27))))
      )
    )
    (symbol "TL084_2_1"
      (polyline
        (pts
          (xy -3.81 4.445)
          (xy 3.81 0)
          (xy -3.81 -4.445)
          (xy -3.81 4.445)
        )
        (stroke (width 0.254) (type default) (color 0 0 0 0))
        (fill (type background))
      )
      (pin input line (at -7.62 2.54 0) (length 3.81)
        (name "+" (effects (font (size 1.27 1.27))))
        (number "5" (effects (font (size 1.27 1.27))))
      )
      (pin input line (at -7.62 -2.54 0) (length 3.81)
        (name "-" (effects (font (size 1.27 1.27))))
        (number "6" (effects (font (size 1.27 1.27))))
      )
      (pin output line (at 7.62 0 180) (length 3.81)
        (name "~" (effects (font (size 1.27 1.27))))
        (number "7" (effects (font (size 1.27 1.27))))
      )
    )
    (symbol "TL084_3_1"
      (polyline
        (pts
          (xy -3.81 4.445)
          (xy 3.81 0)
          (xy -3.81 -4.445)
          (xy -3.81 4.445)
        )
        (stroke (width 0.254) (type default) (color 0 0 0 0))
        (fill (type background))
      )
      (pin input line (at -7.62 2.54 0) (length 3.81)
        (name "+" (effects (font (size 1.27 1.27))))
        (number "10" (effects (font (size 1.27 1.27))))
      )
      (pin output line (at 7.62 0 180) (length 3.81)
        (name "~" (effects (font (size 1.27 1.27))))
        (number "8" (effects (font (size 1.27 1.27))))
      )
      (pin input line (at -7.62 -2.54 0) (length 3.81)
        (name "-" (effects (font (size 1.27 1.27))))
        (number "9" (effects (font (size 1.27 1.27))))
      )
    )
    (symbol "TL084_4_1"
      (polyline
        (pts
          (xy -3.81 4.445)
          (xy 3.81 0)
          (xy -3.81 -4.445)
          (xy -3.81 4.445)
        )
        (stroke (width 0.254) (type default) (color 0 0 0 0))
        (fill (type background))
      )
      (pin input line (at -7.62 2.54 0) (length 3.81)
        (name "+" (effects (font (size 1.27 1.27))))
        (number "12" (effects (font (size 1.27 1.27))))
      )
      (pin input line (at -7.62 -2.54 0) (length 3.81)
        (name "-" (effects (font (size 1.27 1.27))))
        (number "13" (effects (font (size 1.27 1.27))))
      )
      (pin output line (at 7.62 0 180) (length 3.81)
        (name "~" (effects (font (size 1.27 1.27))))
        (number "14" (effects (font (size 1.27 1.27))))
      )
    )
    (symbol "TL084_5_1"
      (pin power_in line (at 0 -7.62 90) (length 5.2324)
        (name "V-" (effects (font (size 1.27 1.27))))
        (number "11" (effects (font (size 1.27 1.27))))
      )
      (pin power_in line (at 0 7.62 270) (length 5.2324)
        (name "V+" (effects (font (size 1.27 1.27))))
        (number "4" (effects (font (size 1.27 1.27))))
      )
    )
  )
  (symbol "teset" (in_bom yes) (on_board yes)
    (property "Reference" "U" (id 0) (at 0 0 0)
      (effects (font (size 1.27 1.27)))
    )
    (property "Value" "teset" (id 1) (at 0 0 0)
      (effects (font (size 1.27 1.27)))
    )
    (property "Footprint" "" (id 2) (at 0 0 0)
      (effects (font (size 1.27 1.27)) hide)
    )
    (property "Datasheet" "" (id 3) (at 0 0 0)
      (effects (font (size 1.27 1.27)) hide)
    )
    (symbol "teset_0_1"
      (rectangle (start -2.54 1.905) (end 3.175 -2.54)
        (stroke (width 0) (type default) (color 0 0 0 0))
        (fill (type none))
      )
    )
  )
)
